{
    "totalResults": 87853,
    "page": 1,
    "total_pages": 3515,
    "more_pages": true,
    "data": [{
        "restaurant_name": "Wild Goat Bistro",
        "restaurant_phone": "(707) 658-1156",
        "restaurant_website": "",
        "hours": "",
        "price_range": "$$$",
        "price_range_num": 3,
        "restaurant_id": 38233881122639360,
        "cuisines": [""],
        "address": {
            "city": "Petaluma",
            "state": "CA",
            "postal_code": "94952",
            "street": "6 Petaluma Boulevard North",
            "formatted": "6 Petaluma Boulevard North Petaluma, CA 94952"
        },
        "geo": {
            "lat": 38.233881,
            "lon": -122.639356
        },
        "menus": [],
        "last_updated": "2021-01-05T07:47:41.856Z"
    }, {
        "restaurant_name": "Red Boy Pizza",
        "restaurant_phone": "(707) 765-1300",
        "restaurant_website": "",
        "hours": "",
        "price_range": "$$$$",
        "price_range_num": 4,
        "restaurant_id": 38244008122624744,
        "cuisines": [""],
        "address": {
            "city": "Petaluma",
            "state": "CA",
            "postal_code": "94952",
            "street": "401 Kenilworth Dr Ste 910",
            "formatted": "401 Kenilworth Dr Ste 910 Petaluma, CA 94952"
        },
        "geo": {
            "lat": 38.244008,
            "lon": -122.624743
        },
        "menus": [],
        "last_updated": "2021-01-05T07:47:41.870Z"
    }, {
        "restaurant_name": "City Chopsticks",
        "restaurant_phone": "(707) 763-3083",
        "restaurant_website": "",
        "hours": "",
        "price_range": "$$",
        "price_range_num": 2,
        "restaurant_id": 38248428122627350,
        "cuisines": [""],
        "address": {
            "city": "Petaluma",
            "state": "CA",
            "postal_code": "94954",
            "street": "127 N McDowell Blvd",
            "formatted": "127 N McDowell Blvd Petaluma, CA 94954"
        },
        "geo": {
            "lat": 38.248428,
            "lon": -122.62735
        },
        "menus": [],
        "last_updated": "2021-01-05T07:47:41.938Z"
    }, {
        "restaurant_name": "Aqus Cafe",
        "restaurant_phone": "(707) 778-6060",
        "restaurant_website": "",
        "hours": "",
        "price_range": "$$",
        "price_range_num": 2,
        "restaurant_id": 38231304122631340,
        "cuisines": [""],
        "address": {
            "city": "Petaluma",
            "state": "CA",
            "postal_code": "94952",
            "street": "189 H St",
            "formatted": "189 H St Petaluma, CA 94952"
        },
        "geo": {
            "lat": 38.231304,
            "lon": -122.631341
        },
        "menus": [],
        "last_updated": "2021-01-05T07:47:41.958Z"
    }, {
        "restaurant_name": "Everest Indian Restaurant",
        "restaurant_phone": "(707) 781-9131",
        "restaurant_website": "http://www.mteverestindianrestaurant.com/",
        "hours": "",
        "price_range": "$$$",
        "price_range_num": 3,
        "restaurant_id": 38235020122638616,
        "cuisines": [""],
        "address": {
            "city": "Petaluma",
            "state": "CA",
            "postal_code": "94952",
            "street": "56 E Washington St",
            "formatted": "56 E Washington St Petaluma, CA 94952"
        },
        "geo": {
            "lat": 38.23502,
            "lon": -122.638618
        },
        "menus": [],
        "last_updated": "2021-01-05T07:47:41.971Z"
    }, {
        "restaurant_name": "Mountain Mike's Pizza",
        "restaurant_phone": "(707) 769-8989",
        "restaurant_website": "http://www.mountainmikes.com/",
        "hours": "",
        "price_range": "$",
        "price_range_num": 1,
        "restaurant_id": 38235725122624500,
        "cuisines": ["American", "Pizza", "Salads", "Sandwiches"],
        "address": {
            "city": "Petaluma",
            "state": "CA",
            "postal_code": "94952",
            "street": "919 Lakeville St",
            "formatted": "919 Lakeville St Petaluma, CA 94952"
        },
        "geo": {
            "lat": 38.235725,
            "lon": -122.624496
        },
        "menus": [],
        "last_updated": "2021-01-05T07:47:41.983Z"
    }, {
        "restaurant_name": "Flowering Tea House",
        "restaurant_phone": "(707) 775-3088",
        "restaurant_website": "",
        "hours": "",
        "price_range": "$$",
        "price_range_num": 2,
        "restaurant_id": 38273567122666260,
        "cuisines": ["Asian", "Chinese", "Seafood"],
        "address": {
            "city": "Petaluma",
            "state": "CA",
            "postal_code": "94954",
            "street": "1367 N McDowell Blvd, Ste 110",
            "formatted": "1367 N McDowell Blvd, Ste 110 Petaluma, CA 94954"
        },
        "geo": {
            "lat": 38.273567,
            "lon": -122.66626
        },
        "menus": [],
        "last_updated": "2021-01-05T07:47:42.103Z"
    }, {
        "restaurant_name": "Great Wraps",
        "restaurant_phone": "",
        "restaurant_website": "",
        "hours": "",
        "price_range": "",
        "price_range_num": 0,
        "restaurant_id": 38244606122630750,
        "cuisines": ["American", "Sandwiches", "Wraps"],
        "address": {
            "city": "PETALUMA",
            "state": "CA",
            "postal_code": "94952",
            "street": "1640 Town Center Drive",
            "formatted": "1640 Town Center Drive PETALUMA, CA 94952"
        },
        "geo": {
            "lat": 38.244606,
            "lon": -122.630748
        },
        "menus": [],
        "last_updated": "2021-01-05T07:47:42.138Z"
    }, {
        "restaurant_name": "Pazzo",
        "restaurant_phone": "(707) 763-3333",
        "restaurant_website": "http://www.webepazzo.com",
        "hours": "",
        "price_range": "",
        "price_range_num": 0,
        "restaurant_id": 38234080122642210,
        "cuisines": ["American", "American (New)"],
        "address": {
            "city": "PETALUMA",
            "state": "CA",
            "postal_code": "94952",
            "street": "132 Keller St",
            "formatted": "132 Keller St PETALUMA, CA 94952"
        },
        "geo": {
            "lat": 38.23408,
            "lon": -122.642209
        },
        "menus": [],
        "last_updated": "2021-01-05T07:47:42.146Z"
    }, {
        "restaurant_name": "Great Wraps",
        "restaurant_phone": "(707) 769-0700",
        "restaurant_website": "",
        "hours": "",
        "price_range": "",
        "price_range_num": 0,
        "restaurant_id": 38233332122639096,
        "cuisines": ["American", "Sandwiches", "Wraps"],
        "address": {
            "city": "PETALUMA",
            "state": "CA",
            "postal_code": "94952",
            "street": "5 Petaluma Blvd S",
            "formatted": "5 Petaluma Blvd S PETALUMA, CA 94952"
        },
        "geo": {
            "lat": 38.233332,
            "lon": -122.639098
        },
        "menus": [],
        "last_updated": "2021-01-05T07:47:42.206Z"
    }, {
        "restaurant_name": "Jack in the Box",
        "restaurant_phone": "(707) 664-1021",
        "restaurant_website": "",
        "hours": "",
        "price_range": "",
        "price_range_num": 0,
        "restaurant_id": 38275249122668600,
        "cuisines": ["American", "Burgers"],
        "address": {
            "city": "PETALUMA",
            "state": "CA",
            "postal_code": "94954",
            "street": "1401 N Mcdowell Blvd",
            "formatted": "1401 N Mcdowell Blvd PETALUMA, CA 94954"
        },
        "geo": {
            "lat": 38.275249,
            "lon": -122.668599
        },
        "menus": [],
        "last_updated": "2021-01-05T07:47:42.271Z"
    }, {
        "restaurant_name": "KFC - Kentucky Fried Chicken",
        "restaurant_phone": "(562) 949-2492",
        "restaurant_website": "http://www.kfc.com",
        "hours": "",
        "price_range": "",
        "price_range_num": 0,
        "restaurant_id": 33969393118100484,
        "cuisines": ["American", "Chicken"],
        "address": {
            "city": "PICO RIVERA",
            "state": "CA",
            "postal_code": "90660",
            "street": "9220 Slauson Ave",
            "formatted": "9220 Slauson Ave PICO RIVERA, CA 90660"
        },
        "geo": {
            "lat": 33.969393,
            "lon": -118.100483
        },
        "menus": [],
        "last_updated": "2021-01-05T07:47:42.854Z"
    }, {
        "restaurant_name": "Panda Express",
        "restaurant_phone": "(707) 766-6330",
        "restaurant_website": "http://www.pandaexpress.com",
        "hours": "",
        "price_range": "",
        "price_range_num": 0,
        "restaurant_id": 38247630122622930,
        "cuisines": ["Asian", "Chinese"],
        "address": {
            "city": "PETALUMA",
            "state": "CA",
            "postal_code": "94954",
            "street": "301 S Mcdowell Blvd",
            "formatted": "301 S Mcdowell Blvd PETALUMA, CA 94954"
        },
        "geo": {
            "lat": 38.24763,
            "lon": -122.622926
        },
        "menus": [],
        "last_updated": "2021-01-05T07:47:43.425Z"
    }, {
        "restaurant_name": "Round Table Pizza",
        "restaurant_phone": "(707) 766-9999",
        "restaurant_website": "http://www.roundtablepizza.com/",
        "hours": "",
        "price_range": "",
        "price_range_num": 0,
        "restaurant_id": 38244749122644696,
        "cuisines": ["American", "Pizza"],
        "address": {
            "city": "PETALUMA",
            "state": "CA",
            "postal_code": "94952",
            "street": "890 Petaluma Blvd N",
            "formatted": "890 Petaluma Blvd N PETALUMA, CA 94952"
        },
        "geo": {
            "lat": 38.244749,
            "lon": -122.644694
        },
        "menus": [],
        "last_updated": "2021-01-05T07:47:43.434Z"
    }, {
        "restaurant_name": "Tacos Campestre",
        "restaurant_phone": "(951) 591-3318",
        "restaurant_website": "http:///ca/perris/843488-tacos-campestre/",
        "hours": "",
        "price_range": "",
        "price_range_num": 0,
        "restaurant_id": 33808628117225344,
        "cuisines": [""],
        "address": {
            "city": "Perris",
            "state": "CA",
            "postal_code": "92571",
            "street": "2055 N Perris Blvd",
            "formatted": "2055 N Perris Blvd Perris, CA 92571"
        },
        "geo": {
            "lat": 33.808628,
            "lon": -117.225342
        },
        "menus": [],
        "last_updated": "2021-01-05T07:47:54.953Z"
    }, {
        "restaurant_name": "Quiznos Sub",
        "restaurant_phone": "(707) 773-4688",
        "restaurant_website": "http://www.quiznos.com/",
        "hours": "",
        "price_range": "",
        "price_range_num": 0,
        "restaurant_id": 38273915122666296,
        "cuisines": ["American", "Sandwiches", "Wraps"],
        "address": {
            "city": "PETALUMA",
            "state": "CA",
            "postal_code": "94954",
            "street": "1367 N Mcdowell Blvd",
            "formatted": "1367 N Mcdowell Blvd PETALUMA, CA 94954"
        },
        "geo": {
            "lat": 38.273915,
            "lon": -122.666296
        },
        "menus": [],
        "last_updated": "2021-01-05T07:47:54.975Z"
    }, {
        "restaurant_name": "Albertos Mexican Food",
        "restaurant_phone": "(951) 657-7951",
        "restaurant_website": "http:///ca/perris/835303-albertos-mexican-food/",
        "hours": "",
        "price_range": "",
        "price_range_num": 0,
        "restaurant_id": 33845307117242736,
        "cuisines": [""],
        "address": {
            "city": "Perris",
            "state": "CA",
            "postal_code": "92571",
            "street": "780 Ramona Expy",
            "formatted": "780 Ramona Expy Perris, CA 92571"
        },
        "geo": {
            "lat": 33.845307,
            "lon": -117.242736
        },
        "menus": [],
        "last_updated": "2021-01-05T07:47:55.195Z"
    }, {
        "restaurant_name": "Burger King",
        "restaurant_phone": "(707) 664-9385",
        "restaurant_website": "",
        "hours": "",
        "price_range": "",
        "price_range_num": 0,
        "restaurant_id": 38275810122669210,
        "cuisines": ["American", "Burgers"],
        "address": {
            "city": "PETALUMA",
            "state": "CA",
            "postal_code": "94954",
            "street": "5304 Old Redwood Hwy",
            "formatted": "5304 Old Redwood Hwy PETALUMA, CA 94954"
        },
        "geo": {
            "lat": 38.27581,
            "lon": -122.669211
        },
        "menus": [],
        "last_updated": "2021-01-05T07:47:55.261Z"
    }, {
        "restaurant_name": "Panda Express",
        "restaurant_phone": "(951) 490-0718",
        "restaurant_website": "http:///ca/perris/819975-panda-express/",
        "hours": "",
        "price_range": "",
        "price_range_num": 0,
        "restaurant_id": 33805840117226664,
        "cuisines": [""],
        "address": {
            "city": "Perris",
            "state": "CA",
            "postal_code": "92571",
            "street": "1840 N Perris Blvd",
            "formatted": "1840 N Perris Blvd Perris, CA 92571"
        },
        "geo": {
            "lat": 33.80584,
            "lon": -117.226662
        },
        "menus": [],
        "last_updated": "2021-01-05T07:47:55.266Z"
    }, {
        "restaurant_name": "McDonald's",
        "restaurant_phone": "(877) 585-1085",
        "restaurant_website": "http:///ca/perris/820592-mcdonalds/",
        "hours": "",
        "price_range": "",
        "price_range_num": 0,
        "restaurant_id": 33806057117229584,
        "cuisines": [""],
        "address": {
            "city": "Perris",
            "state": "CA",
            "postal_code": "92571",
            "street": "1800 North Perris Boulevard",
            "formatted": "1800 North Perris Boulevard Perris, CA 92571"
        },
        "geo": {
            "lat": 33.806057,
            "lon": -117.229584
        },
        "menus": [],
        "last_updated": "2021-01-05T07:47:55.276Z"
    }, {
        "restaurant_name": "Winchell's Donut House",
        "restaurant_phone": "(951) 238-2212",
        "restaurant_website": "http:///ca/perris/789942-winchells-donut-house/",
        "hours": "",
        "price_range": "",
        "price_range_num": 0,
        "restaurant_id": 33782185117222740,
        "cuisines": [""],
        "address": {
            "city": "Perris",
            "state": "CA",
            "postal_code": "92570",
            "street": "345 East 4th Street",
            "formatted": "345 East 4th Street Perris, CA 92570"
        },
        "geo": {
            "lat": 33.782185,
            "lon": -117.22274
        },
        "menus": [],
        "last_updated": "2021-01-05T07:47:55.361Z"
    }, {
        "restaurant_name": "Mr You Chinese Food",
        "restaurant_phone": "(951) 940-7774",
        "restaurant_website": "http:///ca/perris/718454-mr-you-chinese-food/",
        "hours": "",
        "price_range": "",
        "price_range_num": 0,
        "restaurant_id": 33817665117228130,
        "cuisines": [""],
        "address": {
            "city": "Perris",
            "state": "CA",
            "postal_code": "92571",
            "street": "2560 North Perris Boulevard",
            "formatted": "2560 North Perris Boulevard Perris, CA 92571"
        },
        "geo": {
            "lat": 33.817665,
            "lon": -117.228127
        },
        "menus": [],
        "last_updated": "2021-01-05T07:47:55.368Z"
    }, {
        "restaurant_name": "Round Table Pizza",
        "restaurant_phone": "(951) 943-2268",
        "restaurant_website": "http://www.roundtablepizza.com/",
        "hours": "",
        "price_range": "",
        "price_range_num": 0,
        "restaurant_id": 33799581117226500,
        "cuisines": ["American", "Pizza"],
        "address": {
            "city": "PERRIS",
            "state": "CA",
            "postal_code": "92571",
            "street": "15 W Nuevo Rd",
            "formatted": "15 W Nuevo Rd PERRIS, CA 92571"
        },
        "geo": {
            "lat": 33.799581,
            "lon": -117.226501
        },
        "menus": [],
        "last_updated": "2021-01-05T07:47:55.371Z"
    }, {
        "restaurant_name": "Baskin-Robbins",
        "restaurant_phone": "(951) 943-7744",
        "restaurant_website": "https://www.baskinrobbins.com?utm_source=Yext&utm_medium=organic&utm_campaign=Yext",
        "hours": "",
        "price_range": "",
        "price_range_num": 0,
        "restaurant_id": 33805000117227300,
        "cuisines": [""],
        "address": {
            "city": "Perris",
            "state": "CA",
            "postal_code": "92571",
            "street": "1820 N Perris Blvd",
            "formatted": "1820 N Perris Blvd Perris, CA 92571"
        },
        "geo": {
            "lat": 33.805,
            "lon": -117.2273
        },
        "menus": [],
        "last_updated": "2021-01-05T07:47:55.468Z"
    }, {
        "restaurant_name": "Subway",
        "restaurant_phone": "(951) 928-9837",
        "restaurant_website": "https://restaurants.subway.com/united-states/ca/perris/3150-case-rd?utm_source=yext-other&utm_medium=local&utm_term=acq&utm_content=35882&utm_campaign=evergreen-2020&y_source=1_MTQ5MDAwMDEtNzA4LWxvY2F",
        "hours": "",
        "price_range": "",
        "price_range_num": 0,
        "restaurant_id": 33744300117191900,
        "cuisines": [""],
        "address": {
            "city": "Perris",
            "state": "CA",
            "postal_code": "92570",
            "street": "3150 Case Rd",
            "formatted": "3150 Case Rd Perris, CA 92570"
        },
        "geo": {
            "lat": 33.7443,
            "lon": -117.1919
        },
        "menus": [],
        "last_updated": "2021-01-05T07:47:55.494Z"
    }],
    "numResults": 25
}