{
    "totalResults": 54822,
    "page": 1,
    "total_pages": 2193,
    "more_pages": true,
    "data": [{
        "restaurant_name": "Ho Lee",
        "restaurant_phone": "(212) 283-8699",
        "restaurant_website": "",
        "hours": "Mon-Thu: 11am-12am Fri-Sat: 11am-1am Sun: 12pm-12am",
        "price_range": "",
        "price_range_num": 0,
        "restaurant_id": 4082119073938988,
        "cuisines": ["Chinese"],
        "address": {
            "city": "New York",
            "state": "NY",
            "postal_code": "10030",
            "street": "2493 Adam Clayton Powell Jr Blvd",
            "formatted": "2493 Adam Clayton Powell Jr Blvd New York, NY 10030"
        },
        "geo": {
            "lat": 40.82119,
            "lon": -73.938988
        },
        "menus": [],
        "last_updated": "2021-01-05T07:48:11.658Z"
    }, {
        "restaurant_name": "Mama's Fried Chicken",
        "restaurant_phone": "(212) 862-7236",
        "restaurant_website": "",
        "hours": "",
        "price_range": "",
        "price_range_num": 0,
        "restaurant_id": 4082903173937400,
        "cuisines": ["American"],
        "address": {
            "city": "NEW YORK",
            "state": "NY",
            "postal_code": "10039",
            "street": "2925 Frederick Douglass Blvd",
            "formatted": "2925 Frederick Douglass Blvd NEW YORK, NY 10039"
        },
        "geo": {
            "lat": 40.829031,
            "lon": -73.9374
        },
        "menus": [],
        "last_updated": "2021-01-05T07:48:11.668Z"
    }, {
        "restaurant_name": "New Fu On Kitchen",
        "restaurant_phone": "(212) 862-5660",
        "restaurant_website": "",
        "hours": "Mon-Thu: 11:15am-11:45pm Fri-Sat: 11:15am-12:45am Sun: 12pm-11:45pm",
        "price_range": "",
        "price_range_num": 0,
        "restaurant_id": 4081918773940766,
        "cuisines": ["Chinese"],
        "address": {
            "city": "New York",
            "state": "NY",
            "postal_code": "10030",
            "street": "2419 Adam Clayton Powell Jr Blvd",
            "formatted": "2419 Adam Clayton Powell Jr Blvd New York, NY 10030"
        },
        "geo": {
            "lat": 40.819187,
            "lon": -73.940766
        },
        "menus": [],
        "last_updated": "2021-01-05T07:48:11.686Z"
    }, {
        "restaurant_name": "Hong Garden",
        "restaurant_phone": "(212) 283-9988",
        "restaurant_website": "",
        "hours": "Mon-Thu: 11am-11:30pm Fri-Sat: 11am-12:30am Sun: 12pm-11:30pm",
        "price_range": "$",
        "price_range_num": 1,
        "restaurant_id": 4082203173938455,
        "cuisines": ["Chinese"],
        "address": {
            "city": "New York",
            "state": "NY",
            "postal_code": "10039",
            "street": "2515 Adam Clayton Powell Jr Blvd",
            "formatted": "2515 Adam Clayton Powell Jr Blvd New York, NY 10039"
        },
        "geo": {
            "lat": 40.822031,
            "lon": -73.938455
        },
        "menus": [],
        "last_updated": "2021-01-05T07:48:11.714Z"
    }, {
        "restaurant_name": "Red Star",
        "restaurant_phone": "(212) 281-9281",
        "restaurant_website": "",
        "hours": "Mon-Thu: 11am-11:30pm Fri-Sat: 11am-12:30am Sun: 12pm-12am",
        "price_range": "",
        "price_range_num": 0,
        "restaurant_id": 4082258773938270,
        "cuisines": ["Chinese"],
        "address": {
            "city": "New York",
            "state": "NY",
            "postal_code": "10039",
            "street": "2529 Adam Clayton Powell Jr Blvd",
            "formatted": "2529 Adam Clayton Powell Jr Blvd New York, NY 10039"
        },
        "geo": {
            "lat": 40.822587,
            "lon": -73.93827
        },
        "menus": [],
        "last_updated": "2021-01-05T07:48:11.752Z"
    }, {
        "restaurant_name": "Yong Sheng Restaurant",
        "restaurant_phone": "(212) 862-2702",
        "restaurant_website": "",
        "hours": "",
        "price_range": "",
        "price_range_num": 0,
        "restaurant_id": 4082634973939363,
        "cuisines": ["Chinese"],
        "address": {
            "city": "NEW YORK",
            "state": "NY",
            "postal_code": "10039",
            "street": "2825 Frederick Douglass Blvd",
            "formatted": "2825 Frederick Douglass Blvd NEW YORK, NY 10039"
        },
        "geo": {
            "lat": 40.826349,
            "lon": -73.939363
        },
        "menus": [],
        "last_updated": "2021-01-05T07:48:11.772Z"
    }, {
        "restaurant_name": "Maximum Halal Fried Chicken & Pizza",
        "restaurant_phone": "(212) 690-0315",
        "restaurant_website": "",
        "hours": "",
        "price_range": "",
        "price_range_num": 0,
        "restaurant_id": 4083024773940223,
        "cuisines": ["American", "Pizza"],
        "address": {
            "city": "New York",
            "state": "NY",
            "postal_code": "10032",
            "street": "94 St Nicholas Pl",
            "formatted": "94 St Nicholas Pl New York, NY 10032"
        },
        "geo": {
            "lat": 40.830247,
            "lon": -73.940223
        },
        "menus": [],
        "last_updated": "2021-01-05T07:48:11.787Z"
    }, {
        "restaurant_name": "Stand 4",
        "restaurant_phone": "(212) 488-5900",
        "restaurant_website": "",
        "hours": "Mon-Thu: 11am-11pm Fri: 11am-12am Sat: 11am-12am Sun: 11am-11pm ",
        "price_range": "",
        "price_range_num": 0,
        "restaurant_id": 4073410973993241,
        "cuisines": ["American", "Burgers", "Healthy", "Salads"],
        "address": {
            "city": "NEW YORK",
            "state": "NY",
            "postal_code": "10003",
            "street": "24 E 12th St",
            "formatted": "24 E 12th St NEW YORK, NY 10003"
        },
        "geo": {
            "lat": 40.734109,
            "lon": -73.993241
        },
        "menus": [],
        "last_updated": "2021-01-05T07:48:11.797Z"
    }, {
        "restaurant_name": "Bar Six",
        "restaurant_phone": "(212) 691-1363",
        "restaurant_website": "http://barsixny.com/",
        "hours": "Lunch Mon-Fri: 11am-4pm Dinner Sun-Thu: 5pm-1am Fri-Sat: 5pm-2am Brunch Sat-Sun: 11am-4pm",
        "price_range": "$",
        "price_range_num": 1,
        "restaurant_id": 4073647673997333,
        "cuisines": ["Cocktails", "French", "Moroccan"],
        "address": {
            "city": "New York",
            "state": "NY",
            "postal_code": "10011",
            "street": "502 6th Ave",
            "formatted": "502 6th Ave New York, NY 10011"
        },
        "geo": {
            "lat": 40.736476,
            "lon": -73.997333
        },
        "menus": [],
        "last_updated": "2021-01-05T07:48:11.807Z"
    }, {
        "restaurant_name": "Jackson Diner",
        "restaurant_phone": "(212) 620-5544",
        "restaurant_website": "",
        "hours": "Sun-Thu: 12pm-10pm Fri-Sat: 12pm-10:30pm",
        "price_range": "",
        "price_range_num": 0,
        "restaurant_id": 4073354873993511,
        "cuisines": ["Indian"],
        "address": {
            "city": "New York",
            "state": "NY",
            "postal_code": "10003",
            "street": "72 University Pl",
            "formatted": "72 University Pl New York, NY 10003"
        },
        "geo": {
            "lat": 40.733548,
            "lon": -73.993511
        },
        "menus": [],
        "last_updated": "2021-01-05T07:48:11.827Z"
    }, {
        "restaurant_name": "Gotham Bar & Grill",
        "restaurant_phone": "(212) 620-4020",
        "restaurant_website": "http://www.gothambarandgrill.com",
        "hours": "Lunch Mon-Fri: 12pm-2:15pm Dinner Mon-Thu: 5:30pm-10pm Fri: 5:30pm-11pm Sat: 5pm-11pm Sun: 5pm-10pm",
        "price_range": "$",
        "price_range_num": 1,
        "restaurant_id": 4073425073993580,
        "cuisines": ["American (New)", "Local/Organic"],
        "address": {
            "city": "New York",
            "state": "NY",
            "postal_code": "10003",
            "street": "12 E 12th St",
            "formatted": "12 E 12th St New York, NY 10003"
        },
        "geo": {
            "lat": 40.73425,
            "lon": -73.99358
        },
        "menus": [],
        "last_updated": "2021-01-05T07:48:11.841Z"
    }, {
        "restaurant_name": "Jing Hui",
        "restaurant_phone": "(212) 283-8118",
        "restaurant_website": "",
        "hours": "Mon-Thu: 11am-11:30pm Fri-Sat: 11am-12:30am Sun: 12pm-11:30pm",
        "price_range": "",
        "price_range_num": 0,
        "restaurant_id": 4082460373940145,
        "cuisines": ["Chinese"],
        "address": {
            "city": "New York",
            "state": "NY",
            "postal_code": "10039",
            "street": "255 W 148th St",
            "formatted": "255 W 148th St New York, NY 10039"
        },
        "geo": {
            "lat": 40.824603,
            "lon": -73.940145
        },
        "menus": [],
        "last_updated": "2021-01-05T07:48:11.871Z"
    }, {
        "restaurant_name": "Strip House",
        "restaurant_phone": "(212) 328-0000",
        "restaurant_website": "http://www.striphouse.net",
        "hours": "Sun-Mon: 5pm-10pm Tue-Thu: 5pm-11pm Fri-Sat: 5pm-11:30pm",
        "price_range": "$$$$",
        "price_range_num": 4,
        "restaurant_id": 4073434673993500,
        "cuisines": ["Steak"],
        "address": {
            "city": "New York",
            "state": "NY",
            "postal_code": "10003",
            "street": "13 E 12th St",
            "formatted": "13 E 12th St New York, NY 10003"
        },
        "geo": {
            "lat": 40.734346,
            "lon": -73.9935
        },
        "menus": [],
        "last_updated": "2021-01-05T07:48:11.886Z"
    }, {
        "restaurant_name": "Piola",
        "restaurant_phone": "(212) 777-7781",
        "restaurant_website": "http://www.piola.it",
        "hours": "Sun-Thu: 12pm-12am Fri-Sat: 12pm-1am",
        "price_range": "",
        "price_range_num": 0,
        "restaurant_id": 4073341273991560,
        "cuisines": ["American", "Pizza"],
        "address": {
            "city": "NEW YORK",
            "state": "NY",
            "postal_code": "10003",
            "street": "48 E 12th St",
            "formatted": "48 E 12th St NEW YORK, NY 10003"
        },
        "geo": {
            "lat": 40.733412,
            "lon": -73.99156
        },
        "menus": [],
        "last_updated": "2021-01-05T07:48:11.897Z"
    }, {
        "restaurant_name": "The Grey Dog - University",
        "restaurant_phone": "(212) 966-1060",
        "restaurant_website": "http://www.thegreydog.com",
        "hours": "Mon: 7am - 10:30pmTues-Fri: 7am - 11:30pmSat: 7:30am - 11:30pmSun: 7:30am - 10:30pm",
        "price_range": "$$",
        "price_range_num": 2,
        "restaurant_id": 4073380373993149,
        "cuisines": ["Coffee & Tea", "Sandwiches"],
        "address": {
            "city": "New York",
            "state": "NY",
            "postal_code": "10003",
            "street": "90 University Pl",
            "formatted": "90 University Pl New York, NY 10003"
        },
        "geo": {
            "lat": 40.733803,
            "lon": -73.993149
        },
        "menus": [],
        "last_updated": "2021-01-05T07:48:11.908Z"
    }, {
        "restaurant_name": "Gradisca",
        "restaurant_phone": "(212) 691-4886",
        "restaurant_website": "http://www.gradiscanyc.com",
        "hours": "Sun-Thu: 5:30pm-11pm Fri-Sat: 5:30pm-11:30pm",
        "price_range": "$$$$",
        "price_range_num": 4,
        "restaurant_id": 4073717873998568,
        "cuisines": ["Italian"],
        "address": {
            "city": "New York",
            "state": "NY",
            "postal_code": "10011",
            "street": "126 W 13th St",
            "formatted": "126 W 13th St New York, NY 10011"
        },
        "geo": {
            "lat": 40.737178,
            "lon": -73.998568
        },
        "menus": [],
        "last_updated": "2021-01-05T07:48:11.929Z"
    }, {
        "restaurant_name": "The Adore",
        "restaurant_phone": "(212) 243-8742",
        "restaurant_website": "",
        "hours": "Mon-Fri: 8am-6pm Sat: 9am-5pm",
        "price_range": "$$",
        "price_range_num": 2,
        "restaurant_id": 4073504273992967,
        "cuisines": ["American", "Bakery & Pastries", "Coffee & Tea"],
        "address": {
            "city": "NEW YORK",
            "state": "NY",
            "postal_code": "10003",
            "street": "17 E 13th St",
            "formatted": "17 E 13th St NEW YORK, NY 10003"
        },
        "geo": {
            "lat": 40.735042,
            "lon": -73.992967
        },
        "menus": [],
        "last_updated": "2021-01-05T07:48:11.934Z"
    }, {
        "restaurant_name": "Spain Restaurant",
        "restaurant_phone": "(212) 929-9580",
        "restaurant_website": "",
        "hours": "Daily: 12pm-1am",
        "price_range": "",
        "price_range_num": 0,
        "restaurant_id": 4073716373997860,
        "cuisines": ["Spanish", "Tapas"],
        "address": {
            "city": "New York",
            "state": "NY",
            "postal_code": "10011",
            "street": "113 W 13th St",
            "formatted": "113 W 13th St New York, NY 10011"
        },
        "geo": {
            "lat": 40.737163,
            "lon": -73.99786
        },
        "menus": [],
        "last_updated": "2021-01-05T07:48:11.939Z"
    }, {
        "restaurant_name": "Tokyo",
        "restaurant_phone": "(212) 229-1489",
        "restaurant_website": "",
        "hours": "Daily: 12pm-11pm",
        "price_range": "",
        "price_range_num": 0,
        "restaurant_id": 4073369173992963,
        "cuisines": ["Japanese"],
        "address": {
            "city": "NEW YORK",
            "state": "NY",
            "postal_code": "10003",
            "street": "90 University Pl",
            "formatted": "90 University Pl NEW YORK, NY 10003"
        },
        "geo": {
            "lat": 40.733691,
            "lon": -73.992963
        },
        "menus": [],
        "last_updated": "2021-01-05T07:48:11.952Z"
    }, {
        "restaurant_name": "Jimbo's Hamburger Palace",
        "restaurant_phone": "(212) 491-8290",
        "restaurant_website": "",
        "hours": "Mon-Sat: 6am-10pm Sun: 7am-9pm ",
        "price_range": "",
        "price_range_num": 0,
        "restaurant_id": 4082851173937804,
        "cuisines": ["Burgers"],
        "address": {
            "city": "New York",
            "state": "NY",
            "postal_code": "10039",
            "street": "301 W 154th St",
            "formatted": "301 W 154th St New York, NY 10039"
        },
        "geo": {
            "lat": 40.828511,
            "lon": -73.937804
        },
        "menus": [],
        "last_updated": "2021-01-05T07:48:11.983Z"
    }, {
        "restaurant_name": "Mapi Espresso and Sandwich Bar",
        "restaurant_phone": "(212) 929-1041",
        "restaurant_website": "",
        "hours": "Mon-Fri: 7am-7pm Sat: 9am-4pm",
        "price_range": "",
        "price_range_num": 0,
        "restaurant_id": 4073532873994150,
        "cuisines": ["Coffee & Tea", "Hot Dogs", "Sandwiches"],
        "address": {
            "city": "New York",
            "state": "NY",
            "postal_code": "10011",
            "street": "1 W 13th St",
            "formatted": "1 W 13th St New York, NY 10011"
        },
        "geo": {
            "lat": 40.735328,
            "lon": -73.99415
        },
        "menus": [],
        "last_updated": "2021-01-05T07:48:11.994Z"
    }, {
        "restaurant_name": "University Place Gourmet",
        "restaurant_phone": "(212) 243-3139",
        "restaurant_website": "",
        "hours": "Daily: 24hrs",
        "price_range": "$$",
        "price_range_num": 2,
        "restaurant_id": 4073455273992633,
        "cuisines": ["Deli Food", "Sandwiches", "Sushi"],
        "address": {
            "city": "New York",
            "state": "NY",
            "postal_code": "10003",
            "street": "116 University Pl",
            "formatted": "116 University Pl New York, NY 10003"
        },
        "geo": {
            "lat": 40.734552,
            "lon": -73.992633
        },
        "menus": [],
        "last_updated": "2021-01-05T07:48:12.020Z"
    }, {
        "restaurant_name": "Jodie's Friends",
        "restaurant_phone": "(212) 260-5645",
        "restaurant_website": "",
        "hours": "",
        "price_range": "",
        "price_range_num": 0,
        "restaurant_id": 4073273973997491,
        "cuisines": ["Korean"],
        "address": {
            "city": "NEW YORK",
            "state": "NY",
            "postal_code": "10011",
            "street": "22 W 8th St",
            "formatted": "22 W 8th St NEW YORK, NY 10011"
        },
        "geo": {
            "lat": 40.732739,
            "lon": -73.997491
        },
        "menus": [],
        "last_updated": "2021-01-05T07:48:12.025Z"
    }, {
        "restaurant_name": "The Giant Bagel Shop",
        "restaurant_phone": "(212) 243-2775",
        "restaurant_website": "",
        "hours": "Open 24hrs",
        "price_range": "",
        "price_range_num": 0,
        "restaurant_id": 4073485073992458,
        "cuisines": ["American", "Sandwiches", "Wraps"],
        "address": {
            "city": "NEW YORK",
            "state": "NY",
            "postal_code": "10003",
            "street": "120 University Pl",
            "formatted": "120 University Pl NEW YORK, NY 10003"
        },
        "geo": {
            "lat": 40.73485,
            "lon": -73.992458
        },
        "menus": [],
        "last_updated": "2021-01-05T07:48:12.038Z"
    }, {
        "restaurant_name": "Cafe Loup",
        "restaurant_phone": "(212) 255-4746",
        "restaurant_website": "http://www.cafeloupnyc.com/",
        "hours": "Sun-Mon: 12pm - 11:30pmTues-Sat: 12pm - 12am",
        "price_range": "$",
        "price_range_num": 1,
        "restaurant_id": 4073682973997684,
        "cuisines": ["Coffee & Tea", "French"],
        "address": {
            "city": "New York",
            "state": "NY",
            "postal_code": "10011",
            "street": "105 W 13th St",
            "formatted": "105 W 13th St New York, NY 10011"
        },
        "geo": {
            "lat": 40.736829,
            "lon": -73.997684
        },
        "menus": [],
        "last_updated": "2021-01-05T07:48:12.047Z"
    }],
    "numResults": 25
}