{
    "totalResults": 35062,
    "page": 1,
    "total_pages": 1403,
    "more_pages": true,
    "data": [{
        "restaurant_name": "Dunkin' Donuts",
        "restaurant_phone": "(772) 879-7789",
        "restaurant_website": "http://www.dunkindonuts.com",
        "hours": "",
        "price_range": "",
        "price_range_num": 0,
        "restaurant_id": 2722667680356001,
        "cuisines": ["American", "Bagels", "Bakery & Pastries", "Coffee & Tea"],
        "address": {
            "city": "PORT SAINT LUCIE",
            "state": "FL",
            "postal_code": "34953",
            "street": "3401 SW Darwin Blvd",
            "formatted": "3401 SW Darwin Blvd PORT SAINT LUCIE, FL 34953"
        },
        "geo": {
            "lat": 27.226676,
            "lon": -80.356001
        },
        "menus": [],
        "last_updated": "2021-01-05T06:54:43.627Z"
    }, {
        "restaurant_name": "McDonald's",
        "restaurant_phone": "",
        "restaurant_website": "http://www.mcdonalds.com",
        "hours": "",
        "price_range": "",
        "price_range_num": 0,
        "restaurant_id": 2726453780405044,
        "cuisines": ["American", "Burgers"],
        "address": {
            "city": "PORT SAINT LUCIE",
            "state": "FL",
            "postal_code": "34953",
            "street": "1850 SW Gatlin Blvd",
            "formatted": "1850 SW Gatlin Blvd PORT SAINT LUCIE, FL 34953"
        },
        "geo": {
            "lat": 27.264537,
            "lon": -80.405044
        },
        "menus": [],
        "last_updated": "2021-01-05T06:54:43.642Z"
    }, {
        "restaurant_name": "Dunkin'",
        "restaurant_phone": "(772) 878-2790",
        "restaurant_website": "https://www.dunkindonuts.com?utm_source=yext&utm_medium=local&utm_campaign=localmaps&utm_content=340940",
        "hours": "",
        "price_range": "",
        "price_range_num": 0,
        "restaurant_id": 2726520080414200,
        "cuisines": ["American", "Bagels", "Bakery & Pastries", "Coffee & Tea"],
        "address": {
            "city": "Port Saint Lucie",
            "state": "FL",
            "postal_code": "34953",
            "street": "2173 SW Gatlin Blvd",
            "formatted": "2173 SW Gatlin Blvd Port Saint Lucie, FL 34953"
        },
        "geo": {
            "lat": 27.2652,
            "lon": -80.4142
        },
        "menus": [],
        "last_updated": "2021-01-05T06:54:43.651Z"
    }, {
        "restaurant_name": "Wendy's",
        "restaurant_phone": "(772) 336-0422",
        "restaurant_website": "https://locations.wendys.com/united-states/fl/port-saint-lucie/1790-sw-saint-lucie-west-blvd",
        "hours": "",
        "price_range": "",
        "price_range_num": 0,
        "restaurant_id": 2731070080407700,
        "cuisines": ["American", "Burgers"],
        "address": {
            "city": "Port Saint Lucie",
            "state": "FL",
            "postal_code": "34986",
            "street": "1790 Sw Saint Lucie West Blvd",
            "formatted": "1790 Sw Saint Lucie West Blvd Port Saint Lucie, FL 34986"
        },
        "geo": {
            "lat": 27.3107,
            "lon": -80.4077
        },
        "menus": [],
        "last_updated": "2021-01-05T06:54:43.661Z"
    }, {
        "restaurant_name": "Dunkin'",
        "restaurant_phone": "(772) 335-0995",
        "restaurant_website": "https://www.dunkindonuts.com?utm_source=yext&utm_medium=local&utm_campaign=localmaps&utm_content=340186",
        "hours": "",
        "price_range": "",
        "price_range_num": 0,
        "restaurant_id": 2730600080308100,
        "cuisines": ["American", "Bagels", "Bakery & Pastries", "Coffee & Tea"],
        "address": {
            "city": "Port Saint Lucie",
            "state": "FL",
            "postal_code": "34952",
            "street": "1401 SE Village Green Dr",
            "formatted": "1401 SE Village Green Dr Port Saint Lucie, FL 34952"
        },
        "geo": {
            "lat": 27.306,
            "lon": -80.3081
        },
        "menus": [],
        "last_updated": "2021-01-05T06:54:43.669Z"
    }, {
        "restaurant_name": "McDonald's",
        "restaurant_phone": "(561) 878-0600",
        "restaurant_website": "http://www.mcdonalds.com",
        "hours": "",
        "price_range": "",
        "price_range_num": 0,
        "restaurant_id": 2721880080371932,
        "cuisines": ["American", "Burgers"],
        "address": {
            "city": "PORT SAINT LUCIE",
            "state": "FL",
            "postal_code": "34953",
            "street": "3199 SW Port St Lucie Blvd",
            "formatted": "3199 SW Port St Lucie Blvd PORT SAINT LUCIE, FL 34953"
        },
        "geo": {
            "lat": 27.2188,
            "lon": -80.371932
        },
        "menus": [],
        "last_updated": "2021-01-05T06:54:43.682Z"
    }, {
        "restaurant_name": "Wendy's",
        "restaurant_phone": "(772) 336-3931",
        "restaurant_website": "http://www.wendys.com",
        "hours": "",
        "price_range": "",
        "price_range_num": 0,
        "restaurant_id": 2727390580355829,
        "cuisines": ["American", "Burgers"],
        "address": {
            "city": "PORT SAINT LUCIE",
            "state": "FL",
            "postal_code": "34984",
            "street": "270 SW Port St Lucie Blvd",
            "formatted": "270 SW Port St Lucie Blvd PORT SAINT LUCIE, FL 34984"
        },
        "geo": {
            "lat": 27.273905,
            "lon": -80.355829
        },
        "menus": [],
        "last_updated": "2021-01-05T06:54:43.695Z"
    }, {
        "restaurant_name": "Burger King",
        "restaurant_phone": "(772) 337-0701",
        "restaurant_website": "",
        "hours": "",
        "price_range": "",
        "price_range_num": 0,
        "restaurant_id": 2730047380304826,
        "cuisines": ["American", "Burgers"],
        "address": {
            "city": "PORT SAINT LUCIE",
            "state": "FL",
            "postal_code": "34952",
            "street": "9018 S Us Highway 1",
            "formatted": "9018 S Us Highway 1 PORT SAINT LUCIE, FL 34952"
        },
        "geo": {
            "lat": 27.300473,
            "lon": -80.304826
        },
        "menus": [],
        "last_updated": "2021-01-05T06:54:43.709Z"
    }, {
        "restaurant_name": "Burger King",
        "restaurant_phone": "(561) 340-2212",
        "restaurant_website": "",
        "hours": "",
        "price_range": "",
        "price_range_num": 0,
        "restaurant_id": 2722640480372566,
        "cuisines": ["American", "Burgers"],
        "address": {
            "city": "PORT SAINT LUCIE",
            "state": "FL",
            "postal_code": "34953",
            "street": "2880 SW Port St Lucie Blvd",
            "formatted": "2880 SW Port St Lucie Blvd PORT SAINT LUCIE, FL 34953"
        },
        "geo": {
            "lat": 27.226404,
            "lon": -80.372566
        },
        "menus": [],
        "last_updated": "2021-01-05T06:54:43.739Z"
    }, {
        "restaurant_name": "Dunkin' Donuts",
        "restaurant_phone": "(561) 878-0856",
        "restaurant_website": "http://www.dunkindonuts.com",
        "hours": "",
        "price_range": "",
        "price_range_num": 0,
        "restaurant_id": 2726451380407860,
        "cuisines": ["American", "Bagels", "Bakery & Pastries", "Coffee & Tea"],
        "address": {
            "city": "PORT SAINT LUCIE",
            "state": "FL",
            "postal_code": "34953",
            "street": "1924 SW Gatlin Blvd",
            "formatted": "1924 SW Gatlin Blvd PORT SAINT LUCIE, FL 34953"
        },
        "geo": {
            "lat": 27.264513,
            "lon": -80.40786
        },
        "menus": [],
        "last_updated": "2021-01-05T06:54:43.747Z"
    }, {
        "restaurant_name": "Dunkin' Donuts",
        "restaurant_phone": "(772) 871-0025",
        "restaurant_website": "http://www.dunkindonuts.com",
        "hours": "",
        "price_range": "",
        "price_range_num": 0,
        "restaurant_id": 2727341380344979,
        "cuisines": ["American", "Bagels", "Bakery & Pastries", "Coffee & Tea"],
        "address": {
            "city": "PORT SAINT LUCIE",
            "state": "FL",
            "postal_code": "34984",
            "street": "134 SW Port St Lucie Blvd",
            "formatted": "134 SW Port St Lucie Blvd PORT SAINT LUCIE, FL 34984"
        },
        "geo": {
            "lat": 27.273413,
            "lon": -80.344979
        },
        "menus": [],
        "last_updated": "2021-01-05T06:54:43.752Z"
    }, {
        "restaurant_name": "Starbucks Coffee",
        "restaurant_phone": "(772) 344-0768",
        "restaurant_website": "http://www.starbucks.com",
        "hours": "",
        "price_range": "",
        "price_range_num": 0,
        "restaurant_id": 2731764180374113,
        "cuisines": ["American", "Coffee & Tea"],
        "address": {
            "city": "PORT SAINT LUCIE",
            "state": "FL",
            "postal_code": "34986",
            "street": "900 NW Saint Lucie West Blvd",
            "formatted": "900 NW Saint Lucie West Blvd PORT SAINT LUCIE, FL 34986"
        },
        "geo": {
            "lat": 27.317641,
            "lon": -80.374113
        },
        "menus": [],
        "last_updated": "2021-01-05T06:54:43.770Z"
    }, {
        "restaurant_name": "Dunkin'",
        "restaurant_phone": "(772) 340-7501",
        "restaurant_website": "https://www.dunkindonuts.com?utm_source=yext&utm_medium=local&utm_campaign=localmaps&utm_content=342467",
        "hours": "",
        "price_range": "",
        "price_range_num": 0,
        "restaurant_id": 2731050080408400,
        "cuisines": ["American", "Bagels", "Bakery & Pastries", "Coffee & Tea"],
        "address": {
            "city": "Port Saint Lucie",
            "state": "FL",
            "postal_code": "34986",
            "street": "1820 Fountainview Blvd",
            "formatted": "1820 Fountainview Blvd Port Saint Lucie, FL 34986"
        },
        "geo": {
            "lat": 27.3105,
            "lon": -80.4084
        },
        "menus": [],
        "last_updated": "2021-01-05T06:54:43.791Z"
    }, {
        "restaurant_name": "Chili's",
        "restaurant_phone": "(772) 344-0021",
        "restaurant_website": "http://www.chilis.com",
        "hours": "",
        "price_range": "",
        "price_range_num": 0,
        "restaurant_id": 2731264880408728,
        "cuisines": ["American", "Burgers", "Sandwiches", "Soups", "Tex-Mex"],
        "address": {
            "city": "PORT SAINT LUCIE",
            "state": "FL",
            "postal_code": "34986",
            "street": "2050 NW Courtyard Cir",
            "formatted": "2050 NW Courtyard Cir PORT SAINT LUCIE, FL 34986"
        },
        "geo": {
            "lat": 27.312648,
            "lon": -80.408728
        },
        "menus": [],
        "last_updated": "2021-01-05T06:54:43.817Z"
    }, {
        "restaurant_name": "Kelsey's Pizza",
        "restaurant_phone": "(321) 639-3333",
        "restaurant_website": "http:///fl/port-saint-john/822084-kelseys-pizza/",
        "hours": "",
        "price_range": "",
        "price_range_num": 0,
        "restaurant_id": 2847846480769981,
        "cuisines": [""],
        "address": {
            "city": "Port Saint John",
            "state": "FL",
            "postal_code": "32927",
            "street": "6811 U.S. 1",
            "formatted": "6811 U.S. 1 Port Saint John, FL 32927"
        },
        "geo": {
            "lat": 28.478464,
            "lon": -80.769981
        },
        "menus": [],
        "last_updated": "2021-01-05T06:54:43.838Z"
    }, {
        "restaurant_name": "Tropical Smoothie",
        "restaurant_phone": "(772) 380-9494",
        "restaurant_website": "",
        "hours": "",
        "price_range": "",
        "price_range_num": 0,
        "restaurant_id": 2729876080304578,
        "cuisines": ["American", "Sandwiches", "Smoothies & Juices", "Wraps"],
        "address": {
            "city": "PORT SAINT LUCIE",
            "state": "FL",
            "postal_code": "34952",
            "street": "9182 S Us Highway 1",
            "formatted": "9182 S Us Highway 1 PORT SAINT LUCIE, FL 34952"
        },
        "geo": {
            "lat": 27.29876,
            "lon": -80.304578
        },
        "menus": [],
        "last_updated": "2021-01-05T06:54:43.861Z"
    }, {
        "restaurant_name": "Dogs R Us",
        "restaurant_phone": "(321) 638-0619",
        "restaurant_website": "http:///fl/port-saint-john/751515-dogs-r-us/",
        "hours": "",
        "price_range": "",
        "price_range_num": 0,
        "restaurant_id": 2848096580770889,
        "cuisines": [""],
        "address": {
            "city": "Port Saint John",
            "state": "FL",
            "postal_code": "32927",
            "street": "7025 U.S. 1",
            "formatted": "7025 U.S. 1 Port Saint John, FL 32927"
        },
        "geo": {
            "lat": 28.480965,
            "lon": -80.770889
        },
        "menus": [],
        "last_updated": "2021-01-05T06:54:43.881Z"
    }, {
        "restaurant_name": "Dogs R US Grill",
        "restaurant_phone": "(321) 638-0619",
        "restaurant_website": "http:///fl/port-saint-john/802399-dogs-r-us-grill/",
        "hours": "",
        "price_range": "",
        "price_range_num": 0,
        "restaurant_id": 2848090780770996,
        "cuisines": [""],
        "address": {
            "city": "Port Saint John",
            "state": "FL",
            "postal_code": "32927",
            "street": "7025 North Cocoa Boulevard",
            "formatted": "7025 North Cocoa Boulevard Port Saint John, FL 32927"
        },
        "geo": {
            "lat": 28.480907,
            "lon": -80.770996
        },
        "menus": [],
        "last_updated": "2021-01-05T06:54:43.895Z"
    }, {
        "restaurant_name": "Daddy-O's Diner",
        "restaurant_phone": "(321) 636-6604",
        "restaurant_website": "http:///fl/port-saint-john/747259-daddy-os-diner/",
        "hours": "",
        "price_range": "",
        "price_range_num": 0,
        "restaurant_id": 2847398480768272,
        "cuisines": [""],
        "address": {
            "city": "Port Saint John",
            "state": "FL",
            "postal_code": "32927",
            "street": "722 West Avenue",
            "formatted": "722 West Avenue Port Saint John, FL 32927"
        },
        "geo": {
            "lat": 28.473984,
            "lon": -80.768272
        },
        "menus": [],
        "last_updated": "2021-01-05T06:54:43.904Z"
    }, {
        "restaurant_name": "Scoops Old Fashion Ice Cream",
        "restaurant_phone": "(321) 638-0077",
        "restaurant_website": "http:///fl/port-saint-john/746372-scoops-old-fashion-ice-cream/",
        "hours": "",
        "price_range": "",
        "price_range_num": 0,
        "restaurant_id": 2847736080778984,
        "cuisines": [""],
        "address": {
            "city": "Port Saint John",
            "state": "FL",
            "postal_code": "32927",
            "street": "3720 Curtis Boulevard",
            "formatted": "3720 Curtis Boulevard Port Saint John, FL 32927"
        },
        "geo": {
            "lat": 28.47736,
            "lon": -80.778984
        },
        "menus": [],
        "last_updated": "2021-01-05T06:54:43.910Z"
    }, {
        "restaurant_name": "Ruby Tuesday",
        "restaurant_phone": "(772) 340-2575",
        "restaurant_website": "http://www.rubytuesday.com",
        "hours": "",
        "price_range": "",
        "price_range_num": 0,
        "restaurant_id": 2731476680407646,
        "cuisines": ["American", "Burgers"],
        "address": {
            "city": "Port Saint Lucie",
            "state": "FL",
            "postal_code": "34986",
            "street": "1500 NW Courtyard Cir",
            "formatted": "1500 NW Courtyard Cir Port Saint Lucie, FL 34986"
        },
        "geo": {
            "lat": 27.314766,
            "lon": -80.407646
        },
        "menus": [],
        "last_updated": "2021-01-05T06:54:43.923Z"
    }, {
        "restaurant_name": "China Garden",
        "restaurant_phone": "(321) 636-1788",
        "restaurant_website": "http:///fl/port-saint-john/822064-china-garden/",
        "hours": "",
        "price_range": "",
        "price_range_num": 0,
        "restaurant_id": 2846788280800530,
        "cuisines": [""],
        "address": {
            "city": "Port Saint John",
            "state": "FL",
            "postal_code": "32927",
            "street": "4795 Fay Boulevard",
            "formatted": "4795 Fay Boulevard Port Saint John, FL 32927"
        },
        "geo": {
            "lat": 28.467882,
            "lon": -80.80053
        },
        "menus": [],
        "last_updated": "2021-01-05T06:54:43.949Z"
    }, {
        "restaurant_name": "China Wok",
        "restaurant_phone": "(321) 504-0388",
        "restaurant_website": "http:///fl/port-saint-john/752441-china-wok/",
        "hours": "",
        "price_range": "",
        "price_range_num": 0,
        "restaurant_id": 2848664580774567,
        "cuisines": [""],
        "address": {
            "city": "Port Saint John",
            "state": "FL",
            "postal_code": "32927",
            "street": "7327 U.S. 1",
            "formatted": "7327 U.S. 1 Port Saint John, FL 32927"
        },
        "geo": {
            "lat": 28.486645,
            "lon": -80.774567
        },
        "menus": [],
        "last_updated": "2021-01-05T06:54:43.963Z"
    }, {
        "restaurant_name": "Country Cookin Diner",
        "restaurant_phone": "(321) 638-0777",
        "restaurant_website": "http:///fl/port-saint-john/746965-country-cookin-diner/",
        "hours": "",
        "price_range": "",
        "price_range_num": 0,
        "restaurant_id": 2847431080768402,
        "cuisines": [""],
        "address": {
            "city": "Port Saint John",
            "state": "FL",
            "postal_code": "32927",
            "street": "704 West Avenue",
            "formatted": "704 West Avenue Port Saint John, FL 32927"
        },
        "geo": {
            "lat": 28.47431,
            "lon": -80.768402
        },
        "menus": [],
        "last_updated": "2021-01-05T06:54:43.976Z"
    }, {
        "restaurant_name": "Gaden Cafe",
        "restaurant_phone": "(321) 637-3328",
        "restaurant_website": "",
        "hours": "",
        "price_range": "",
        "price_range_num": 0,
        "restaurant_id": 2847179880766925,
        "cuisines": ["American", "Coffee & Tea"],
        "address": {
            "city": "PORT SAINT JOHN",
            "state": "FL",
            "postal_code": "32927",
            "street": "6231 N Cocoa Blvd",
            "formatted": "6231 N Cocoa Blvd PORT SAINT JOHN, FL 32927"
        },
        "geo": {
            "lat": 28.471798,
            "lon": -80.766925
        },
        "menus": [],
        "last_updated": "2021-01-05T06:54:44.003Z"
    }],
    "numResults": 25
}