{
    "totalResults": 1050,
    "page": 1,
    "total_pages": 43,
    "more_pages": true,
    "data": [{
        "restaurant_name": "Starbucks Coffee",
        "restaurant_phone": "(808) 926-4863",
        "restaurant_website": "http://www.starbucks.com",
        "hours": "",
        "price_range": "",
        "price_range_num": 0,
        "restaurant_id": 21279991157828516,
        "cuisines": ["American", "Coffee & Tea"],
        "address": {
            "city": "HONOLULU",
            "state": "HI",
            "postal_code": "96815",
            "street": "330 Royal Hawaiian Ave",
            "formatted": "330 Royal Hawaiian Ave HONOLULU, HI 96815"
        },
        "geo": {
            "lat": 21.279991,
            "lon": -157.828516
        },
        "menus": [],
        "last_updated": "2020-12-29T01:13:22.145Z"
    }, {
        "restaurant_name": "Buddha's Cup- Coffee Tours & Tasting",
        "restaurant_phone": "(808) 322-6712",
        "restaurant_website": "",
        "hours": "",
        "price_range": "$$$$",
        "price_range_num": 4,
        "restaurant_id": 19559930155922820,
        "cuisines": ["Chinese", "Coffee & Tea"],
        "address": {
            "city": "Holualoa",
            "state": "HI",
            "postal_code": "96725",
            "street": "78-1377 Bishop Rd",
            "formatted": "78-1377 Bishop Rd Holualoa, HI 96725"
        },
        "geo": {
            "lat": 19.55993,
            "lon": -155.92282
        },
        "menus": [],
        "last_updated": "2020-12-29T01:13:22.150Z"
    }, {
        "restaurant_name": "L & L Hawaiian BBQ",
        "restaurant_phone": "(808) 834-0888",
        "restaurant_website": "",
        "hours": "",
        "price_range": "",
        "price_range_num": 0,
        "restaurant_id": 19721971155087080,
        "cuisines": ["American", "Barbecue"],
        "address": {
            "city": "HILO",
            "state": "HI",
            "postal_code": "96720",
            "street": "348 Kinoole St",
            "formatted": "348 Kinoole St HILO, HI 96720"
        },
        "geo": {
            "lat": 19.721971,
            "lon": -155.087082
        },
        "menus": [],
        "last_updated": "2020-12-29T01:13:22.155Z"
    }, {
        "restaurant_name": "Domino's Pizza",
        "restaurant_phone": "(808) 961-3030",
        "restaurant_website": "http://www.dominos.com",
        "hours": "",
        "price_range": "",
        "price_range_num": 0,
        "restaurant_id": 19719464155082200,
        "cuisines": ["American", "Pizza", "Wings"],
        "address": {
            "city": "Hilo",
            "state": "HI",
            "postal_code": "96720",
            "street": "419 Kilkauea Ave",
            "formatted": "419 Kilkauea Ave Hilo, HI 96720"
        },
        "geo": {
            "lat": 19.719464,
            "lon": -155.0822
        },
        "menus": [],
        "last_updated": "2020-12-29T01:13:22.187Z"
    }, {
        "restaurant_name": "Ruby Tuesday",
        "restaurant_phone": "(808) 422-8585",
        "restaurant_website": "http://www.rubytuesday.com",
        "hours": "",
        "price_range": "",
        "price_range_num": 0,
        "restaurant_id": 21344669157928970,
        "cuisines": ["American", "Burgers"],
        "address": {
            "city": "Honolulu",
            "state": "HI",
            "postal_code": "96818",
            "street": "930 Valkenburg St Spc 211",
            "formatted": "930 Valkenburg St Spc 211 Honolulu, HI 96818"
        },
        "geo": {
            "lat": 21.344669,
            "lon": -157.92897
        },
        "menus": [],
        "last_updated": "2020-12-29T01:13:22.211Z"
    }, {
        "restaurant_name": "Taco Bell",
        "restaurant_phone": "(808) 959-9444",
        "restaurant_website": "https://locations.tacobell.com/hi/hilo/2100-kanoelehua-ave.html?utm_source=yext&utm_campaign=yextpowerlistings&utm_medium=referral&utm_term=004267&utm_content=website",
        "hours": "",
        "price_range": "",
        "price_range_num": 0,
        "restaurant_id": 19692300155066400,
        "cuisines": ["Burgers"],
        "address": {
            "city": "Hilo",
            "state": "HI",
            "postal_code": "96720",
            "street": "2100 Kanoelehua Ave",
            "formatted": "2100 Kanoelehua Ave Hilo, HI 96720"
        },
        "geo": {
            "lat": 19.6923,
            "lon": -155.0664
        },
        "menus": [],
        "last_updated": "2020-12-29T01:13:22.251Z"
    }, {
        "restaurant_name": "Starbucks Coffee",
        "restaurant_phone": "(808) 599-4833",
        "restaurant_website": "http://www.starbucks.com",
        "hours": "",
        "price_range": "",
        "price_range_num": 0,
        "restaurant_id": 21308875157861370,
        "cuisines": ["American", "Coffee & Tea"],
        "address": {
            "city": "HONOLULU",
            "state": "HI",
            "postal_code": "96813",
            "street": "1000 Bishop St",
            "formatted": "1000 Bishop St HONOLULU, HI 96813"
        },
        "geo": {
            "lat": 21.308875,
            "lon": -157.861369
        },
        "menus": [],
        "last_updated": "2020-12-29T01:13:22.326Z"
    }, {
        "restaurant_name": "Subway",
        "restaurant_phone": "(808) 935-9217",
        "restaurant_website": "https://restaurants.subway.com/united-states/hi/hilo/194-kilauea-avenue?utm_source=yext-other&utm_medium=local&utm_term=acq&utm_content=7615&utm_campaign=evergreen-2020&y_source=1_MTQ5MDM5NzEtNzA4LWxv",
        "hours": "",
        "price_range": "",
        "price_range_num": 0,
        "restaurant_id": 19721700155085500,
        "cuisines": ["American", "Burgers"],
        "address": {
            "city": "Hilo",
            "state": "HI",
            "postal_code": "96720",
            "street": "194 Kilauea Avenue",
            "formatted": "194 Kilauea Avenue Hilo, HI 96720"
        },
        "geo": {
            "lat": 19.7217,
            "lon": -155.0855
        },
        "menus": [],
        "last_updated": "2020-12-29T01:13:22.357Z"
    }, {
        "restaurant_name": "Baskin-Robbins",
        "restaurant_phone": "(808) 959-3331",
        "restaurant_website": "https://www.baskinrobbins.com?utm_source=Yext&utm_medium=organic&utm_campaign=Yext",
        "hours": "",
        "price_range": "",
        "price_range_num": 0,
        "restaurant_id": 19690800155067000,
        "cuisines": ["American", "Ice Cream"],
        "address": {
            "city": "Hilo",
            "state": "HI",
            "postal_code": "96720",
            "street": "2100 Kanoelehua Ave",
            "formatted": "2100 Kanoelehua Ave Hilo, HI 96720"
        },
        "geo": {
            "lat": 19.6908,
            "lon": -155.067
        },
        "menus": [],
        "last_updated": "2020-12-29T01:13:22.362Z"
    }, {
        "restaurant_name": "Maui Tacos",
        "restaurant_phone": "(808) 959-0359",
        "restaurant_website": "http://www.mauitacos.com/",
        "hours": "",
        "price_range": "",
        "price_range_num": 0,
        "restaurant_id": 19695404155063812,
        "cuisines": ["American", "Mexican", "Tex-Mex"],
        "address": {
            "city": "HILO",
            "state": "HI",
            "postal_code": "96720",
            "street": "111 E Puainako St",
            "formatted": "111 E Puainako St HILO, HI 96720"
        },
        "geo": {
            "lat": 19.695404,
            "lon": -155.063812
        },
        "menus": [],
        "last_updated": "2020-12-29T01:13:22.369Z"
    }, {
        "restaurant_name": "McDonald's",
        "restaurant_phone": "",
        "restaurant_website": "http://www.mcdonalds.com",
        "hours": "",
        "price_range": "",
        "price_range_num": 0,
        "restaurant_id": 19722262155088550,
        "cuisines": ["American", "Burgers"],
        "address": {
            "city": "HILO",
            "state": "HI",
            "postal_code": "96720",
            "street": "177 Ululani St",
            "formatted": "177 Ululani St HILO, HI 96720"
        },
        "geo": {
            "lat": 19.722262,
            "lon": -155.088554
        },
        "menus": [],
        "last_updated": "2020-12-29T01:13:22.381Z"
    }, {
        "restaurant_name": "McDonald's",
        "restaurant_phone": "",
        "restaurant_website": "http://www.mcdonalds.com",
        "hours": "",
        "price_range": "",
        "price_range_num": 0,
        "restaurant_id": 19691133155066052,
        "cuisines": ["American", "Burgers"],
        "address": {
            "city": "HILO",
            "state": "HI",
            "postal_code": "96720",
            "street": "2100 Kanoelehua Ave",
            "formatted": "2100 Kanoelehua Ave HILO, HI 96720"
        },
        "geo": {
            "lat": 19.691133,
            "lon": -155.066051
        },
        "menus": [],
        "last_updated": "2020-12-29T01:13:22.398Z"
    }, {
        "restaurant_name": "Cafe Pesto",
        "restaurant_phone": "(808) 969-6640",
        "restaurant_website": "http://www.cafepesto.com/",
        "hours": "",
        "price_range": "$",
        "price_range_num": 1,
        "restaurant_id": 19723701155085176,
        "cuisines": ["Ice cream", "Coffee & Tea"],
        "address": {
            "city": "Hilo",
            "state": "HI",
            "postal_code": "96720",
            "street": "308 Kamehameha Ave",
            "formatted": "308 Kamehameha Ave Hilo, HI 96720"
        },
        "geo": {
            "lat": 19.723701,
            "lon": -155.085175
        },
        "menus": [],
        "last_updated": "2020-12-29T01:13:22.412Z"
    }, {
        "restaurant_name": "Jack in the Box",
        "restaurant_phone": "(808) 959-3111",
        "restaurant_website": "",
        "hours": "",
        "price_range": "",
        "price_range_num": 0,
        "restaurant_id": 19693712155066664,
        "cuisines": ["American", "Burgers"],
        "address": {
            "city": "Hilo",
            "state": "HI",
            "postal_code": "96720",
            "street": "50 E Puainako St",
            "formatted": "50 E Puainako St Hilo, HI 96720"
        },
        "geo": {
            "lat": 19.693712,
            "lon": -155.066666
        },
        "menus": [],
        "last_updated": "2020-12-29T01:13:22.445Z"
    }, {
        "restaurant_name": "Dairy Queen",
        "restaurant_phone": "(808) 981-5308",
        "restaurant_website": "http://www.dairyqueen.com",
        "hours": "",
        "price_range": "",
        "price_range_num": 0,
        "restaurant_id": 19697712155063790,
        "cuisines": ["American", "Burgers", "Ice Cream"],
        "address": {
            "city": "HILO",
            "state": "HI",
            "postal_code": "96720",
            "street": "Prince Kuhio St",
            "formatted": "Prince Kuhio St HILO, HI 96720"
        },
        "geo": {
            "lat": 19.697712,
            "lon": -155.063793
        },
        "menus": [],
        "last_updated": "2020-12-29T01:13:22.477Z"
    }, {
        "restaurant_name": "Subway",
        "restaurant_phone": "(808) 965-8551",
        "restaurant_website": "http://www.subway.com",
        "hours": "",
        "price_range": "",
        "price_range_num": 0,
        "restaurant_id": 19693441155062690,
        "cuisines": ["Sandwiches"],
        "address": {
            "city": "HILO",
            "state": "HI",
            "postal_code": "96720",
            "street": "15 Pohai St",
            "formatted": "15 Pohai St HILO, HI 96720"
        },
        "geo": {
            "lat": 19.693441,
            "lon": -155.062686
        },
        "menus": [],
        "last_updated": "2020-12-29T01:13:22.520Z"
    }, {
        "restaurant_name": "Subway",
        "restaurant_phone": "(808) 422-4425",
        "restaurant_website": "https://restaurants.subway.com/united-states/hi/hickam-village/1232-o'malley-blvd-vickers-ave?utm_source=yext-other&utm_medium=local&utm_term=acq&utm_content=38558&utm_campaign=evergreen-2020&y_source",
        "hours": "",
        "price_range": "",
        "price_range_num": 0,
        "restaurant_id": 21342200157951600,
        "cuisines": ["Sandwiches"],
        "address": {
            "city": "Hickam Village",
            "state": "HI",
            "postal_code": "96853",
            "street": "1232 O&#39;Malley Blvd Vickers Ave",
            "formatted": "1232 O&#39;Malley Blvd Vickers Ave Hickam Village, HI 96853"
        },
        "geo": {
            "lat": 21.3422,
            "lon": -157.9516
        },
        "menus": [],
        "last_updated": "2020-12-29T01:13:22.538Z"
    }, {
        "restaurant_name": "L & L Hawaiian BBQ",
        "restaurant_phone": "(808) 422-9987",
        "restaurant_website": "",
        "hours": "",
        "price_range": "",
        "price_range_num": 0,
        "restaurant_id": 21333768157944840,
        "cuisines": ["American", "Barbecue"],
        "address": {
            "city": "Hickam AFB",
            "state": "HI",
            "postal_code": "96853",
            "street": "Bldg. 2105 Mccleland Rd.",
            "formatted": "Bldg. 2105 Mccleland Rd. Hickam AFB, HI 96853"
        },
        "geo": {
            "lat": 21.333768,
            "lon": -157.944842
        },
        "menus": [],
        "last_updated": "2020-12-29T01:13:22.552Z"
    }, {
        "restaurant_name": "Planet Smoothie",
        "restaurant_phone": "(808) 449-1145",
        "restaurant_website": "",
        "hours": "",
        "price_range": "",
        "price_range_num": 0,
        "restaurant_id": 21340027157955870,
        "cuisines": ["American", "Smoothies & Juices"],
        "address": {
            "city": "HICKAM AFB",
            "state": "HI",
            "postal_code": "96853",
            "street": "1120 Vickers Ave",
            "formatted": "1120 Vickers Ave HICKAM AFB, HI 96853"
        },
        "geo": {
            "lat": 21.340027,
            "lon": -157.95587
        },
        "menus": [],
        "last_updated": "2020-12-29T01:13:22.557Z"
    }, {
        "restaurant_name": "Starbucks Coffee",
        "restaurant_phone": "(808) 959-2492",
        "restaurant_website": "http://www.starbucks.com",
        "hours": "",
        "price_range": "",
        "price_range_num": 0,
        "restaurant_id": 19694992155067016,
        "cuisines": ["American", "Coffee & Tea"],
        "address": {
            "city": "HILO",
            "state": "HI",
            "postal_code": "96720",
            "street": "111 E Puainako St",
            "formatted": "111 E Puainako St HILO, HI 96720"
        },
        "geo": {
            "lat": 19.694992,
            "lon": -155.067014
        },
        "menus": [],
        "last_updated": "2020-12-29T01:13:22.567Z"
    }, {
        "restaurant_name": "Subway",
        "restaurant_phone": "(808) 959-5802",
        "restaurant_website": "https://restaurants.subway.com/united-states/hi/hilo/2100-kanoelehua-ave?utm_source=yext-other&utm_medium=local&utm_term=acq&utm_content=4861&utm_campaign=evergreen-2020&y_source=1_MTQ5MTAwNDYtNzA4LWx",
        "hours": "",
        "price_range": "",
        "price_range_num": 0,
        "restaurant_id": 19690200155066200,
        "cuisines": ["Sandwiches"],
        "address": {
            "city": "Hilo",
            "state": "HI",
            "postal_code": "96720",
            "street": "2100 Kanoelehua Ave",
            "formatted": "2100 Kanoelehua Ave Hilo, HI 96720"
        },
        "geo": {
            "lat": 19.6902,
            "lon": -155.0662
        },
        "menus": [],
        "last_updated": "2020-12-29T01:13:22.590Z"
    }, {
        "restaurant_name": "Tahiti Nui Restaurant",
        "restaurant_phone": "(808) 826-6277",
        "restaurant_website": "",
        "hours": "",
        "price_range": "$$$$",
        "price_range_num": 4,
        "restaurant_id": 22203293159495150,
        "cuisines": ["Chinese", "Coffee & Tea"],
        "address": {
            "city": "Hanalei",
            "state": "HI",
            "postal_code": "96714",
            "street": "5-5134 Kuhio Highway",
            "formatted": "5-5134 Kuhio Highway Hanalei, HI 96714"
        },
        "geo": {
            "lat": 22.203293,
            "lon": -159.495151
        },
        "menus": [],
        "last_updated": "2020-12-29T01:13:22.613Z"
    }, {
        "restaurant_name": "Subway",
        "restaurant_phone": "(808) 853-4923",
        "restaurant_website": "https://restaurants.subway.com/united-states/hi/hickam-afb/hickam-shoppette-kuntz-ave?utm_source=yext-other&utm_medium=local&utm_term=acq&utm_content=30810&utm_campaign=evergreen-2020&y_source=1_MTQ5M",
        "hours": "",
        "price_range": "",
        "price_range_num": 0,
        "restaurant_id": 21336800157938700,
        "cuisines": ["Sandwiches"],
        "address": {
            "city": "Hickam AFB",
            "state": "HI",
            "postal_code": "96853",
            "street": "Hickam Shoppette, Kuntz Ave",
            "formatted": "Hickam Shoppette, Kuntz Ave Hickam AFB, HI 96853"
        },
        "geo": {
            "lat": 21.3368,
            "lon": -157.9387
        },
        "menus": [],
        "last_updated": "2020-12-29T01:13:22.635Z"
    }, {
        "restaurant_name": "Luibueno's Mexican & Seafood Restaurant",
        "restaurant_phone": "(808) 637-7717",
        "restaurant_website": "http://www.luibueno.com",
        "hours": "",
        "price_range": "$$$",
        "price_range_num": 3,
        "restaurant_id": 21591088158102784,
        "cuisines": ["Drinks"],
        "address": {
            "city": "Haleiwa",
            "state": "HI",
            "postal_code": "96712",
            "street": "66-165 Kamehameha Hwy",
            "formatted": "66-165 Kamehameha Hwy Haleiwa, HI 96712"
        },
        "geo": {
            "lat": 21.591088,
            "lon": -158.102782
        },
        "menus": [],
        "last_updated": "2020-12-29T01:13:22.678Z"
    }, {
        "restaurant_name": "B's Bar & Grinds",
        "restaurant_phone": "(808) 744-4125",
        "restaurant_website": "http://bsbarandgrinds.com/",
        "hours": "",
        "price_range": "$$$",
        "price_range_num": 3,
        "restaurant_id": 21588311158103110,
        "cuisines": ["Ice cream", "Coffee & Tea", "Drinks"],
        "address": {
            "city": "Haleiwa",
            "state": "HI",
            "postal_code": "96712",
            "street": "66-197 Kamehameha Highway",
            "formatted": "66-197 Kamehameha Highway Haleiwa, HI 96712"
        },
        "geo": {
            "lat": 21.588311,
            "lon": -158.103112
        },
        "menus": [],
        "last_updated": "2020-12-29T01:13:22.698Z"
    }],
    "numResults": 25
}