{
    "totalResults": 14332,
    "page": 1,
    "total_pages": 574,
    "more_pages": true,
    "data": [{
        "restaurant_name": "Kelso Theater Pub and Backstage Cafe",
        "restaurant_phone": "",
        "restaurant_website": "",
        "hours": "",
        "price_range": "$$",
        "price_range_num": 2,
        "restaurant_id": 46143880122911620,
        "cuisines": [""],
        "address": {
            "city": "Kelso",
            "state": "WA",
            "postal_code": "98626",
            "street": "214 S Pacific Ave",
            "formatted": "214 S Pacific Ave Kelso, WA 98626"
        },
        "geo": {
            "lat": 46.14388,
            "lon": -122.91162
        },
        "menus": [],
        "last_updated": "2020-12-24T18:38:12.152Z"
    }, {
        "restaurant_name": "Kelso Theater Pub and Backstage Cafe",
        "restaurant_phone": "(360) 414-9451",
        "restaurant_website": "http://ktpub.com/",
        "hours": "",
        "price_range": "",
        "price_range_num": 0,
        "restaurant_id": 46143630122911230,
        "cuisines": [""],
        "address": {
            "city": "Kelso",
            "state": "WA",
            "postal_code": "98626",
            "street": "214 Pacific Ave S",
            "formatted": "214 Pacific Ave S Kelso, WA 98626"
        },
        "geo": {
            "lat": 46.14363,
            "lon": -122.91123
        },
        "menus": [],
        "last_updated": "2020-12-24T18:38:12.160Z"
    }, {
        "restaurant_name": "Sharis",
        "restaurant_phone": "(360) 423-7306",
        "restaurant_website": "http://www.sharis.com/restaurant-locations/washington/greater-vancouver-area/kelso/kelso.html",
        "hours": "",
        "price_range": "$",
        "price_range_num": 1,
        "restaurant_id": 46143829122896136,
        "cuisines": [""],
        "address": {
            "city": "Kelso",
            "state": "WA",
            "postal_code": "98626",
            "street": "205 Kelso Dr",
            "formatted": "205 Kelso Dr Kelso, WA 98626"
        },
        "geo": {
            "lat": 46.143829,
            "lon": -122.896133
        },
        "menus": [],
        "last_updated": "2020-12-24T18:38:12.178Z"
    }, {
        "restaurant_name": "Dairy Queen",
        "restaurant_phone": "(360) 578-2535",
        "restaurant_website": "http://www.dairyqueen.com",
        "hours": "",
        "price_range": "",
        "price_range_num": 0,
        "restaurant_id": 46139822122901940,
        "cuisines": ["American", "Burgers", "Ice Cream"],
        "address": {
            "city": "KELSO",
            "state": "WA",
            "postal_code": "98626",
            "street": "351 Three Rivers Dr",
            "formatted": "351 Three Rivers Dr KELSO, WA 98626"
        },
        "geo": {
            "lat": 46.139822,
            "lon": -122.901934
        },
        "menus": [],
        "last_updated": "2020-12-24T18:38:12.289Z"
    }, {
        "restaurant_name": "Burger King",
        "restaurant_phone": "(360) 577-8689",
        "restaurant_website": "http://www.bk.com",
        "hours": "",
        "price_range": "",
        "price_range_num": 0,
        "restaurant_id": 46143616122903500,
        "cuisines": ["American"],
        "address": {
            "city": "KELSO",
            "state": "WA",
            "postal_code": "98626",
            "street": "1021 Allen St",
            "formatted": "1021 Allen St KELSO, WA 98626"
        },
        "geo": {
            "lat": 46.143616,
            "lon": -122.903504
        },
        "menus": [],
        "last_updated": "2020-12-24T18:38:12.303Z"
    }, {
        "restaurant_name": "Burgerville",
        "restaurant_phone": "(360) 501-4354",
        "restaurant_website": "",
        "hours": "",
        "price_range": "",
        "price_range_num": 0,
        "restaurant_id": 46146522122921080,
        "cuisines": ["Burgers"],
        "address": {
            "city": "KELSO",
            "state": "WA",
            "postal_code": "98626",
            "street": "600 W Main St",
            "formatted": "600 W Main St KELSO, WA 98626"
        },
        "geo": {
            "lat": 46.146522,
            "lon": -122.921082
        },
        "menus": [],
        "last_updated": "2020-12-24T18:38:12.314Z"
    }, {
        "restaurant_name": "Taco Bell",
        "restaurant_phone": "(360) 425-3726",
        "restaurant_website": "http://www.tacobell.com",
        "hours": "",
        "price_range": "",
        "price_range_num": 0,
        "restaurant_id": 46143634122903630,
        "cuisines": ["Mexican"],
        "address": {
            "city": "KELSO",
            "state": "WA",
            "postal_code": "98626",
            "street": "1009 Allen St",
            "formatted": "1009 Allen St KELSO, WA 98626"
        },
        "geo": {
            "lat": 46.143634,
            "lon": -122.903628
        },
        "menus": [],
        "last_updated": "2020-12-24T18:38:12.319Z"
    }, {
        "restaurant_name": "Dairy Queen",
        "restaurant_phone": "(360) 425-2360",
        "restaurant_website": "http://www.dairyqueen.com",
        "hours": "",
        "price_range": "",
        "price_range_num": 0,
        "restaurant_id": 46135256122903100,
        "cuisines": ["American", "Burgers", "Ice Cream"],
        "address": {
            "city": "KELSO",
            "state": "WA",
            "postal_code": "98626",
            "street": "1002 S 13th Ave",
            "formatted": "1002 S 13th Ave KELSO, WA 98626"
        },
        "geo": {
            "lat": 46.135256,
            "lon": -122.903108
        },
        "menus": [],
        "last_updated": "2020-12-24T18:38:12.335Z"
    }, {
        "restaurant_name": "McDonald's",
        "restaurant_phone": "(360) 636-1340",
        "restaurant_website": "http://www.mcdonalds.com",
        "hours": "",
        "price_range": "",
        "price_range_num": 0,
        "restaurant_id": 46151602122899890,
        "cuisines": ["American", "Burgers"],
        "address": {
            "city": "KELSO",
            "state": "WA",
            "postal_code": "98626",
            "street": "300 Kelso Dr",
            "formatted": "300 Kelso Dr KELSO, WA 98626"
        },
        "geo": {
            "lat": 46.151602,
            "lon": -122.899887
        },
        "menus": [],
        "last_updated": "2020-12-24T18:38:12.343Z"
    }, {
        "restaurant_name": "Azteca",
        "restaurant_phone": "(360) 577-9087",
        "restaurant_website": "",
        "hours": "",
        "price_range": "",
        "price_range_num": 0,
        "restaurant_id": 46139397122902670,
        "cuisines": ["Mexican"],
        "address": {
            "city": "KELSO",
            "state": "WA",
            "postal_code": "98626",
            "street": "420 Three Rivers Dr",
            "formatted": "420 Three Rivers Dr KELSO, WA 98626"
        },
        "geo": {
            "lat": 46.139397,
            "lon": -122.902672
        },
        "menus": [],
        "last_updated": "2020-12-24T18:38:12.364Z"
    }, {
        "restaurant_name": "Subway",
        "restaurant_phone": "(360) 501-4941",
        "restaurant_website": "http://www.subway.com",
        "hours": "",
        "price_range": "",
        "price_range_num": 0,
        "restaurant_id": 46151184122899890,
        "cuisines": ["Sandwiches"],
        "address": {
            "city": "KELSO",
            "state": "WA",
            "postal_code": "98626",
            "street": "220 Kelso Dr",
            "formatted": "220 Kelso Dr KELSO, WA 98626"
        },
        "geo": {
            "lat": 46.151184,
            "lon": -122.899891
        },
        "menus": [],
        "last_updated": "2020-12-24T18:38:12.422Z"
    }, {
        "restaurant_name": "Subway",
        "restaurant_phone": "(253) 964-4430",
        "restaurant_website": "https://restaurants.subway.com/united-states/wa/joint-base-lewis-mcchord/41st-division-dr?utm_source=yext-other&utm_medium=local&utm_term=acq&utm_content=62712&utm_campaign=evergreen-2020&y_source=1_M",
        "hours": "",
        "price_range": "",
        "price_range_num": 0,
        "restaurant_id": 47092100122589600,
        "cuisines": [""],
        "address": {
            "city": "Joint Base Lewis-McChord",
            "state": "WA",
            "postal_code": "98433",
            "street": "41st Division Dr.",
            "formatted": "41st Division Dr. Joint Base Lewis-McChord, WA 98433"
        },
        "geo": {
            "lat": 47.0921,
            "lon": -122.5896
        },
        "menus": [],
        "last_updated": "2020-12-24T18:38:12.498Z"
    }, {
        "restaurant_name": "Red Lobster",
        "restaurant_phone": "(360) 414-8118",
        "restaurant_website": "http://www.redlobster.com",
        "hours": "",
        "price_range": "",
        "price_range_num": 0,
        "restaurant_id": 46141883122900600,
        "cuisines": ["American", "Seafood"],
        "address": {
            "city": "KELSO",
            "state": "WA",
            "postal_code": "98626",
            "street": "203 Three Rivers Dr",
            "formatted": "203 Three Rivers Dr KELSO, WA 98626"
        },
        "geo": {
            "lat": 46.141883,
            "lon": -122.900597
        },
        "menus": [],
        "last_updated": "2020-12-24T18:38:12.512Z"
    }, {
        "restaurant_name": "Sharetea Issaquah",
        "restaurant_phone": "(425) 395-4010",
        "restaurant_website": "http:///wa/issaquah/998183-sharetea-issaquah/",
        "hours": "",
        "price_range": "",
        "price_range_num": 0,
        "restaurant_id": 47540798122040000,
        "cuisines": [""],
        "address": {
            "city": "Issaquah",
            "state": "WA",
            "postal_code": "98027",
            "street": "240 Northwest Gilman Boulevard",
            "formatted": "240 Northwest Gilman Boulevard Issaquah, WA 98027"
        },
        "geo": {
            "lat": 47.540798,
            "lon": -122.040001
        },
        "menus": [],
        "last_updated": "2020-12-24T18:38:12.520Z"
    }, {
        "restaurant_name": "Subway",
        "restaurant_phone": "(360) 673-7474",
        "restaurant_website": "https://restaurants.subway.com/united-states/wa/kalama/165-n-1st?utm_source=yext-other&utm_medium=local&utm_term=acq&utm_content=22355&utm_campaign=evergreen-2020&y_source=1_MTQ5MTQzMTctNzA4LWxvY2F0aW",
        "hours": "",
        "price_range": "",
        "price_range_num": 0,
        "restaurant_id": 46008200122844900,
        "cuisines": ["Sandwiches"],
        "address": {
            "city": "Kalama",
            "state": "WA",
            "postal_code": "98625",
            "street": "165 N 1st",
            "formatted": "165 N 1st Kalama, WA 98625"
        },
        "geo": {
            "lat": 46.0082,
            "lon": -122.8449
        },
        "menus": [],
        "last_updated": "2020-12-24T18:38:12.547Z"
    }, {
        "restaurant_name": "Papa Murphy's Take 'N' Bake Pizza",
        "restaurant_phone": "(425) 313-1828",
        "restaurant_website": "https://locations.papamurphys.com/wa/issaquah/4504-klahanie-drive-se",
        "hours": "",
        "price_range": "",
        "price_range_num": 0,
        "restaurant_id": 47565200122005100,
        "cuisines": [""],
        "address": {
            "city": "Issaquah",
            "state": "WA",
            "postal_code": "98029",
            "street": "4504 Klahanie Drive SE",
            "formatted": "4504 Klahanie Drive SE Issaquah, WA 98029"
        },
        "geo": {
            "lat": 47.5652,
            "lon": -122.0051
        },
        "menus": [],
        "last_updated": "2020-12-24T18:38:12.557Z"
    }, {
        "restaurant_name": "Taco Time NW",
        "restaurant_phone": "(425) 392-2743",
        "restaurant_website": "https://order.tacotimenw.com/menu/issaquah-north-issaquah",
        "hours": "",
        "price_range": "",
        "price_range_num": 0,
        "restaurant_id": 47551700122046000,
        "cuisines": [""],
        "address": {
            "city": "Issaquah",
            "state": "WA",
            "postal_code": "98027",
            "street": "5611 221st Place SE",
            "formatted": "5611 221st Place SE Issaquah, WA 98027"
        },
        "geo": {
            "lat": 47.5517,
            "lon": -122.046
        },
        "menus": [],
        "last_updated": "2020-12-24T18:38:12.591Z"
    }, {
        "restaurant_name": "Happy Lemon Bubble Tea & Coffee",
        "restaurant_phone": "(425) 395-7293",
        "restaurant_website": "http:///wa/issaquah/842123-happy-lemon-bubble-tea-coffee/",
        "hours": "",
        "price_range": "",
        "price_range_num": 0,
        "restaurant_id": 47551655122058136,
        "cuisines": [""],
        "address": {
            "city": "Issaquah",
            "state": "WA",
            "postal_code": "98027",
            "street": "1171 NW Sammamish Rd #109",
            "formatted": "1171 NW Sammamish Rd #109 Issaquah, WA 98027"
        },
        "geo": {
            "lat": 47.551655,
            "lon": -122.058136
        },
        "menus": [],
        "last_updated": "2020-12-24T18:38:12.619Z"
    }, {
        "restaurant_name": "Giovanni's Espresso",
        "restaurant_phone": "(425) 443-5779",
        "restaurant_website": "http:///wa/issaquah/830274-giovannis-espresso/",
        "hours": "",
        "price_range": "",
        "price_range_num": 0,
        "restaurant_id": 47552509122049940,
        "cuisines": [""],
        "address": {
            "city": "Issaquah",
            "state": "WA",
            "postal_code": "98027",
            "street": "888 Northwest Sammamish Road",
            "formatted": "888 Northwest Sammamish Road Issaquah, WA 98027"
        },
        "geo": {
            "lat": 47.552509,
            "lon": -122.049934
        },
        "menus": [],
        "last_updated": "2020-12-24T18:38:12.641Z"
    }, {
        "restaurant_name": "Koffee Sutra",
        "restaurant_phone": "(425) 392-8646",
        "restaurant_website": "http:///wa/issaquah/830232-koffee-sutra/",
        "hours": "",
        "price_range": "",
        "price_range_num": 0,
        "restaurant_id": 47529167122036370,
        "cuisines": [""],
        "address": {
            "city": "Issaquah",
            "state": "WA",
            "postal_code": "98027",
            "street": "102 Front Street South",
            "formatted": "102 Front Street South Issaquah, WA 98027"
        },
        "geo": {
            "lat": 47.529167,
            "lon": -122.036369
        },
        "menus": [],
        "last_updated": "2020-12-24T18:38:12.671Z"
    }, {
        "restaurant_name": "Red Robin",
        "restaurant_phone": "(425) 313-0950",
        "restaurant_website": "",
        "hours": "",
        "price_range": "",
        "price_range_num": 0,
        "restaurant_id": 47549198122053430,
        "cuisines": ["American"],
        "address": {
            "city": "Issaquah",
            "state": "WA",
            "postal_code": "98027",
            "street": "1085 Lake Dr",
            "formatted": "1085 Lake Dr Issaquah, WA 98027"
        },
        "geo": {
            "lat": 47.549198,
            "lon": -122.053429
        },
        "menus": [],
        "last_updated": "2020-12-24T18:38:12.692Z"
    }, {
        "restaurant_name": "IHOP",
        "restaurant_phone": "(425) 392-1361",
        "restaurant_website": "http://ihop.com",
        "hours": "",
        "price_range": "",
        "price_range_num": 0,
        "restaurant_id": 47551947122059176,
        "cuisines": ["American", "Burgers", "Salads", "Sandwiches", "Soups", "Steak", "Wraps"],
        "address": {
            "city": "ISSAQUAH",
            "state": "WA",
            "postal_code": "98027",
            "street": "1433 NW Sammamish Rd",
            "formatted": "1433 NW Sammamish Rd ISSAQUAH, WA 98027"
        },
        "geo": {
            "lat": 47.551947,
            "lon": -122.059179
        },
        "menus": [],
        "last_updated": "2020-12-24T18:38:12.699Z"
    }, {
        "restaurant_name": "Emerald City Smoothie",
        "restaurant_phone": "(425) 557-9068",
        "restaurant_website": "http:///wa/issaquah/821406-emerald-city-smoothie/",
        "hours": "",
        "price_range": "",
        "price_range_num": 0,
        "restaurant_id": 47546703122058690,
        "cuisines": [""],
        "address": {
            "city": "Issaquah",
            "state": "WA",
            "postal_code": "98027",
            "street": "1480 Northwest Gilman Boulevard",
            "formatted": "1480 Northwest Gilman Boulevard Issaquah, WA 98027"
        },
        "geo": {
            "lat": 47.546703,
            "lon": -122.058685
        },
        "menus": [],
        "last_updated": "2020-12-24T18:38:12.764Z"
    }, {
        "restaurant_name": "Corner Bakery Cafe",
        "restaurant_phone": "(425) 651-2770",
        "restaurant_website": "http:///wa/issaquah/807549-corner-bakery-cafe/",
        "hours": "",
        "price_range": "",
        "price_range_num": 0,
        "restaurant_id": 47544113122048330,
        "cuisines": [""],
        "address": {
            "city": "Issaquah",
            "state": "WA",
            "postal_code": "98027",
            "street": "720 NW Gilman Blvd",
            "formatted": "720 NW Gilman Blvd Issaquah, WA 98027"
        },
        "geo": {
            "lat": 47.544113,
            "lon": -122.048325
        },
        "menus": [],
        "last_updated": "2020-12-24T18:38:12.851Z"
    }, {
        "restaurant_name": "The Rollin Log Tavern",
        "restaurant_phone": "(425) 392-2964",
        "restaurant_website": "http:///wa/issaquah/786634-the-rollin-log-tavern/",
        "hours": "",
        "price_range": "",
        "price_range_num": 0,
        "restaurant_id": 47530338122035720,
        "cuisines": [""],
        "address": {
            "city": "Issaquah",
            "state": "WA",
            "postal_code": "98027",
            "street": "50 East Sunset Way",
            "formatted": "50 East Sunset Way Issaquah, WA 98027"
        },
        "geo": {
            "lat": 47.530338,
            "lon": -122.035721
        },
        "menus": [],
        "last_updated": "2020-12-24T18:38:12.854Z"
    }],
    "numResults": 25
}